module api-users

go 1.21.5

require (
	github.com/go-playground/validator/v10 v10.17.0
	github.com/gofiber/fiber/v2 v2.52.0
	github.com/golang-jwt/jwt v3.2.2+incompatible
	github.com/jmoiron/sqlx v1.3.5
	github.com/joho/godotenv v1.5.1
	github.com/lib/pq v1.10.9
	golang.org/x/crypto v0.18.0
)

require (
	github.com/MicahParks/keyfunc/v2 v2.1.0 // indirect
	github.com/dgrijalva/jwt-go v3.2.0+incompatible // indirect
	github.com/gofiber/fiber v1.13.3 // indirect
	github.com/gofiber/utils v0.0.9 // indirect
	github.com/golang-jwt/jwt/v4 v4.5.0 // indirect
	github.com/golang-jwt/jwt/v5 v5.2.0 // indirect
	github.com/gorilla/schema v1.1.0 // indirect
)

require (
	github.com/andybalholm/brotli v1.0.5 // indirect
	github.com/gabriel-vasile/mimetype v1.4.2 // indirect
	github.com/go-playground/locales v0.14.1 // indirect
	github.com/go-playground/universal-translator v0.18.1 // indirect
	github.com/gofiber/contrib/jwt v1.0.8
	github.com/gofiber/jwt v0.2.0
	github.com/gofiber/jwt/v2 v2.2.7
	github.com/gofiber/jwt/v3 v3.3.10
	github.com/google/uuid v1.5.0
	github.com/klauspost/compress v1.17.0 // indirect
	github.com/leodido/go-urn v1.2.4 // indirect
	github.com/mattn/go-colorable v0.1.13 // indirect
	github.com/mattn/go-isatty v0.0.20 // indirect
	github.com/mattn/go-runewidth v0.0.15 // indirect
	github.com/rivo/uniseg v0.2.0 // indirect
	github.com/valyala/bytebufferpool v1.0.0 // indirect
	github.com/valyala/fasthttp v1.51.0 // indirect
	github.com/valyala/tcplisten v1.0.0 // indirect
	golang.org/x/net v0.17.0 // indirect
	golang.org/x/sys v0.16.0 // indirect
	golang.org/x/text v0.14.0 // indirect
)
